<?xml version="1.0" encoding="UTF-8" standalone="no"?>
<?xml-stylesheet href="geodesic.css" type="text/css"?>
<!DOCTYPE svg PUBLIC "-//W3C//DTD SVG 1.1//EN"
                     "http://www.w3.org/Graphics/SVG/1.1/DTD/svg11.dtd">

<!-- Constructed by Kevin Cole [ubuntourist@hacdc.org] 2019.09.26     -->
<!--                                                                  -->
<!-- See: https://www.w3.org/wiki/SVG_Primer                          -->
<!--      https://www.w3.org/TR/SVG11/                                -->
<!--      https://developer.mozilla.org/en-US/docs/Web/SVG            -->
<!--                                                                  -->
<!-- 8.5 inches = 215.9 mm, 11.0 inches = 279.4 mm                    -->

<svg version="1.1"
     xmlns="http://www.w3.org/2000/svg"
     xmlns:dc="http://purl.org/dc/elements/1.1/"
     xmlns:cc="http://creativecommons.org/ns#"
     xmlns:rdf="http://www.w3.org/1999/02/22-rdf-syntax-ns#"
     xmlns:svg="http://www.w3.org/2000/svg"
     id="svg8"
     viewBox="0 0 215.9 279.4"
     height="11in"
     width="8.5in">
  <metadata
     id="metadata5">
    <rdf:RDF>
      <cc:Work
         rdf:about="">
        <dc:format>image/svg+xml</dc:format>
        <dc:type
           rdf:resource="http://purl.org/dc/dcmitype/StillImage" />
        <dc:title>Geodesic</dc:title>
        <cc:license
           rdf:resource="http://creativecommons.org/licenses/by-sa/4.0/" />
        <dc:date>2019-09-26</dc:date>
        <dc:creator>
          <cc:Agent>
            <dc:title>Kevin Cole</dc:title>
          </cc:Agent>
        </dc:creator>
        <dc:rights>
          <cc:Agent>
            <dc:title>CC-BY-SA</dc:title>
          </cc:Agent>
        </dc:rights>
        <dc:description>Physical model for 3D class</dc:description>
      </cc:Work>
      <cc:License
         rdf:about="http://creativecommons.org/licenses/by-sa/4.0/">
        <cc:permits
           rdf:resource="http://creativecommons.org/ns#Reproduction" />
        <cc:permits
           rdf:resource="http://creativecommons.org/ns#Distribution" />
        <cc:requires
           rdf:resource="http://creativecommons.org/ns#Notice" />
        <cc:requires
           rdf:resource="http://creativecommons.org/ns#Attribution" />
        <cc:permits
           rdf:resource="http://creativecommons.org/ns#DerivativeWorks" />
        <cc:requires
           rdf:resource="http://creativecommons.org/ns#ShareAlike" />
      </cc:License>
    </rdf:RDF>
  </metadata>
  <title id="title815">Geodesic</title>

  <!-- 8.5  inches = 215.9 mm, 11.0 inches = 279.4 mm -->
  <!-- 1.0  inches =  25.40 mm                        -->
  <!-- 0.25 inches =   6.35 mm margin                 -->

<!--
  Inscribed equalateral triangle (angles are 120 degrees apart):

    (cos(radians(-30)) * 50.80) + 50.80 =  94.79409051224948
    (sin(radians(-30)) * 50.80) + 50.80 =  25.400000000000002

    (cos(radians(90))  * 50.80) + 50.80 =  50.8
    (sin(radians(90))  * 50.80) + 50.80 = 101.6

    (cos(radians(210)) * 50.80) + 50.80 =   6.805909487750519
    (sin(radians(210)) * 50.80) + 50.80 =  25.39999999999999
==============================================================================
  (cos(radians(-30)) * 50.20) + 50.80 = 94.27447526997882
  (sin(radians(-30)) * 50.20) + 50.80 = 25.7
  
  (cos(radians(90))  * 50.20) + 50.80 = 50.8
  (sin(radians(90))  * 50.20) + 50.80 = 101.0
  
  (cos(radians(210)) * 50.20) + 50.80 = 7.325524730021179
  (sin(radians(210)) * 50.20) + 50.80 = 25.69999999999999

-->

  <defs>
    <pattern id="tile" width="50%" height="50%"
             viewBox="0 0 103.6 103.6">
      <circle  cx="51.80" cy="51.80" r="50.80"
               fill="none" stroke-width="1" stroke="black" />
      <circle  cx="51.80" cy="51.80" r="0.5"
               fill="black" stroke-width="1" stroke="black" />
      <polygon points="95.27   26.70
                       51.80, 102.00
                        8.33   26.70
                       95.27   26.70"
               fill="none" stroke-width="1" stroke="black" />
    </pattern>
  </defs>
  <g transform="translate(6.35,6.35)">
    <rect x="0" y="0" width="203.20" height="203.20"
          fill="url(#tile)" />
  </g>
</svg>
